cpu_wave.vcd
$date
	Thu Jul 24 20:16:56 2025
$end
$version
	Icarus Verilog
$end
$timescale
	1ps
$end
$scope module cpu_tb $end
$var reg 1 ! clk $end
$var reg 1 " reset $end
$scope module uut $end
$var wire 1 # branch_taken $end
$var wire 1 ! clk $end
$var wire 32 $ instr [31:0] $end
$var wire 1 " reset $end
$var wire 5 % rs2 [4:0] $end
$var wire 5 & rs1 [4:0] $end
$var wire 32 ' reg_rdata2 [31:0] $end
$var wire 32 ( reg_rdata1 [31:0] $end
$var wire 5 ) rd [4:0] $end
$var wire 7 * opcode [6:0] $end
$var wire 32 + mem_rdata [31:0] $end
$var wire 7 , funct7 [6:0] $end
$var wire 3 - funct3 [2:0] $end
$var wire 1 . alu_zero $end
$var wire 32 / alu_result [31:0] $end
$var reg 4 0 alu_ctrl [3:0] $end
$var reg 32 1 alu_in2 [31:0] $end
$var reg 1 2 alusrc $end
$var reg 1 3 branch $end
$var reg 32 4 imm_b [31:0] $end
$var reg 32 5 imm_i [31:0] $end
$var reg 1 6 memread $end
$var reg 1 7 memtoreg $end
$var reg 1 8 memwrite $end
$var reg 32 9 pc [31:0] $end
$var reg 5 : reg_waddr [4:0] $end
$var reg 32 ; reg_wdata [31:0] $end
$var reg 1 < reg_we $end
$var integer 32 = i [31:0] $end
$scope module alu0 $end
$var wire 4 > alu_control [3:0] $end
$var wire 32 ? b [31:0] $end
$var wire 1 . zero $end
$var wire 32 @ a [31:0] $end
$var reg 32 A alu_result [31:0] $end
$upscope $end
$scope module data_memory $end
$var wire 32 B addr [31:0] $end
$var wire 1 ! clk $end
$var wire 1 6 memread $end
$var wire 1 8 memwrite $end
$var wire 32 C writedata [31:0] $end
$var reg 32 D readdata [31:0] $end
$var integer 32 E i [31:0] $end
$upscope $end
$scope module registers $end
$var wire 1 ! clk $end
$var wire 5 F ra1 [4:0] $end
$var wire 5 G ra2 [4:0] $end
$var wire 5 H wa3 [4:0] $end
$var wire 32 I wd3 [31:0] $end
$var wire 1 < we3 $end
$var wire 32 J rd2 [31:0] $end
$var wire 32 K rd1 [31:0] $end
$var integer 32 L i [31:0] $end
$upscope $end
$upscope $end
$upscope $end
$enddefinitions $end
$comment Show the parameter values. $end
$dumpall
$end
#0
$dumpvars
b100000 L
b0 K
b0 J
b101 I
b1 H
b101 G
b0 F
b10000000 E
b0 D
b0 C
b101 B
b101 A
b0 @
b101 ?
b10 >
b100000 =
1<
b101 ;
b1 :
b0 9
08
07
06
b101 5
b100000000000 4
03
12
b101 1
b10 0
b101 /
0.
b0 -
b0 ,
b0 +
b10011 *
b1 )
b0 (
b0 '
b0 &
b101 %
b10100000000000010010011 $
0#
1"
0!
$end
#5000
1!
#10000
0!
0"
#15000
b1 /
b1 A
b1 B
b1 1
b1 ?
b1 ;
b1 I
b10 :
b10 H
b10 0
b10 >
1<
12
b101 '
b101 C
b101 J
b10 4
b1 5
b10 )
b1 %
b1 G
b100000000000100010011 $
b100 9
1!
#20000
0!
#25000
b1 1
b1 ?
b1 ;
b1 I
b11 :
b11 H
b10 0
b10 >
1<
12
b100000000010 4
b11 )
b100000000000110010011 $
b1000 9
1!
#30000
0!
#35000
b10 /
b10 A
b10 B
b10 ;
b10 I
b10 0
b10 >
1<
02
b1 (
b1 @
b1 K
b1 '
b1 C
b1 J
b11 5
b110011 *
b10 &
b10 F
b11 %
b11 G
b1100010000000110110011 $
b1100 9
1!
#40000
0!
#45000
b11 /
b11 A
b11 B
b10 (
b10 @
b10 K
12
b1 1
b1 ?
b11 ;
b11 I
b10 0
b10 >
1<
b1 5
b10011 *
b11 &
b11 F
b1 %
b1 G
b101 '
b101 C
b101 J
b100011000000110010011 $
b10000 9
1!
#50000
0!
#55000
1#
b0 '
b0 C
b0 J
13
b0 1
b0 ?
b0 ;
b0 I
b10101 :
b10101 H
b110 0
b110 >
0<
02
b11 /
b11 A
b11 B
b11111111111111111111111111110100 4
b11111111111111111111111111100101 5
b1100011 *
b10101 )
b1 -
b101 %
b101 G
b1111111 ,
b11 (
b11 @
b11 K
b11111110010100011001101011100011 $
b10100 9
1!
#60000
0!
#65000
b1 /
b1 A
b1 B
0#
b0 (
b0 @
b0 K
b101 '
b101 C
b101 J
b1 ;
b1 I
b1 1
b1 ?
12
1<
b11 :
b11 H
b10 0
b10 >
03
b100000000010 4
b1 5
b10011 *
b11 )
b0 -
b0 &
b0 F
b1 %
b1 G
b0 ,
b100000000000110010011 $
b1000 9
1!
#70000
0!
#75000
b10 /
b10 A
b10 B
b10 ;
b10 I
b10 0
b10 >
1<
02
b1 (
b1 @
b1 K
b1 '
b1 C
b1 J
b11 5
b110011 *
b10 &
b10 F
b11 %
b11 G
b1100010000000110110011 $
b1100 9
1!
#80000
0!
#85000
b11 /
b11 A
b11 B
b10 (
b10 @
b10 K
12
b1 1
b1 ?
b11 ;
b11 I
b10 0
b10 >
1<
b1 5
b10011 *
b11 &
b11 F
b1 %
b1 G
b101 '
b101 C
b101 J
b100011000000110010011 $
b10000 9
1!
#90000
0!
#95000
1#
b0 '
b0 C
b0 J
13
b0 1
b0 ?
b0 ;
b0 I
b10101 :
b10101 H
b110 0
b110 >
0<
02
b11 /
b11 A
b11 B
b11111111111111111111111111110100 4
b11111111111111111111111111100101 5
b1100011 *
b10101 )
b1 -
b101 %
b101 G
b1111111 ,
b11 (
b11 @
b11 K
b11111110010100011001101011100011 $
b10100 9
1!
#100000
0!
#105000
b1 /
b1 A
b1 B
0#
b0 (
b0 @
b0 K
b101 '
b101 C
b101 J
b1 ;
b1 I
b1 1
b1 ?
12
1<
b11 :
b11 H
b10 0
b10 >
03
b100000000010 4
b1 5
b10011 *
b11 )
b0 -
b0 &
b0 F
b1 %
b1 G
b0 ,
b100000000000110010011 $
b1000 9
1!
#110000
0!
#115000
b10 /
b10 A
b10 B
b10 ;
b10 I
b10 0
b10 >
1<
02
b1 (
b1 @
b1 K
b1 '
b1 C
b1 J
b11 5
b110011 *
b10 &
b10 F
b11 %
b11 G
b1100010000000110110011 $
b1100 9
1!
#120000
0!
#125000
b11 /
b11 A
b11 B
b10 (
b10 @
b10 K
12
b1 1
b1 ?
b11 ;
b11 I
b10 0
b10 >
1<
b1 5
b10011 *
b11 &
b11 F
b1 %
b1 G
b101 '
b101 C
b101 J
b100011000000110010011 $
b10000 9
1!
#130000
0!
#135000
1#
b0 '
b0 C
b0 J
13
b0 1
b0 ?
b0 ;
b0 I
b10101 :
b10101 H
b110 0
b110 >
0<
02
b11 /
b11 A
b11 B
b11111111111111111111111111110100 4
b11111111111111111111111111100101 5
b1100011 *
b10101 )
b1 -
b101 %
b101 G
b1111111 ,
b11 (
b11 @
b11 K
b11111110010100011001101011100011 $
b10100 9
1!
#140000
0!
#145000
b1 /
b1 A
b1 B
0#
b0 (
b0 @
b0 K
b101 '
b101 C
b101 J
b1 ;
b1 I
b1 1
b1 ?
12
1<
b11 :
b11 H
b10 0
b10 >
03
b100000000010 4
b1 5
b10011 *
b11 )
b0 -
b0 &
b0 F
b1 %
b1 G
b0 ,
b100000000000110010011 $
b1000 9
1!
#150000
0!
#155000
b10 /
b10 A
b10 B
b10 ;
b10 I
b10 0
b10 >
1<
02
b1 (
b1 @
b1 K
b1 '
b1 C
b1 J
b11 5
b110011 *
b10 &
b10 F
b11 %
b11 G
b1100010000000110110011 $
b1100 9
1!
#160000
0!
#165000
b11 /
b11 A
b11 B
b10 (
b10 @
b10 K
12
b1 1
b1 ?
b11 ;
b11 I
b10 0
b10 >
1<
b1 5
b10011 *
b11 &
b11 F
b1 %
b1 G
b101 '
b101 C
b101 J
b100011000000110010011 $
b10000 9
1!
#170000
0!
#175000
1#
b0 '
b0 C
b0 J
13
b0 1
b0 ?
b0 ;
b0 I
b10101 :
b10101 H
b110 0
b110 >
0<
02
b11 /
b11 A
b11 B
b11111111111111111111111111110100 4
b11111111111111111111111111100101 5
b1100011 *
b10101 )
b1 -
b101 %
b101 G
b1111111 ,
b11 (
b11 @
b11 K
b11111110010100011001101011100011 $
b10100 9
1!
#180000
0!
#185000
b1 /
b1 A
b1 B
0#
b0 (
b0 @
b0 K
b101 '
b101 C
b101 J
b1 ;
b1 I
b1 1
b1 ?
12
1<
b11 :
b11 H
b10 0
b10 >
03
b100000000010 4
b1 5
b10011 *
b11 )
b0 -
b0 &
b0 F
b1 %
b1 G
b0 ,
b100000000000110010011 $
b1000 9
1!
#190000
0!
#195000
b10 /
b10 A
b10 B
b10 ;
b10 I
b10 0
b10 >
1<
02
b1 (
b1 @
b1 K
b1 '
b1 C
b1 J
b11 5
b110011 *
b10 &
b10 F
b11 %
b11 G
b1100010000000110110011 $
b1100 9
1!
#200000
0!
#205000
b11 /
b11 A
b11 B
b10 (
b10 @
b10 K
12
b1 1
b1 ?
b11 ;
b11 I
b10 0
b10 >
1<
b1 5
b10011 *
b11 &
b11 F
b1 %
b1 G
b101 '
b101 C
b101 J
b100011000000110010011 $
b10000 9
1!
#210000
0!
#215000
1#
b0 '
b0 C
b0 J
13
b0 1
b0 ?
b0 ;
b0 I
b10101 :
b10101 H
b110 0
b110 >
0<
02
b11 /
b11 A
b11 B
b11111111111111111111111111110100 4
b11111111111111111111111111100101 5
b1100011 *
b10101 )
b1 -
b101 %
b101 G
b1111111 ,
b11 (
b11 @
b11 K
b11111110010100011001101011100011 $
b10100 9
1!
#220000
0!
#225000
b1 /
b1 A
b1 B
0#
b0 (
b0 @
b0 K
b101 '
b101 C
b101 J
b1 ;
b1 I
b1 1
b1 ?
12
1<
b11 :
b11 H
b10 0
b10 >
03
b100000000010 4
b1 5
b10011 *
b11 )
b0 -
b0 &
b0 F
b1 %
b1 G
b0 ,
b100000000000110010011 $
b1000 9
1!
#230000
0!
#235000
b10 /
b10 A
b10 B
b10 ;
b10 I
b10 0
b10 >
1<
02
b1 (
b1 @
b1 K
b1 '
b1 C
b1 J
b11 5
b110011 *
b10 &
b10 F
b11 %
b11 G
b1100010000000110110011 $
b1100 9
1!
#240000
0!
#245000
b11 /
b11 A
b11 B
b10 (
b10 @
b10 K
12
b1 1
b1 ?
b11 ;
b11 I
b10 0
b10 >
1<
b1 5
b10011 *
b11 &
b11 F
b1 %
b1 G
b101 '
b101 C
b101 J
b100011000000110010011 $
b10000 9
1!
#250000
0!
#255000
1#
b0 '
b0 C
b0 J
13
b0 1
b0 ?
b0 ;
b0 I
b10101 :
b10101 H
b110 0
b110 >
0<
02
b11 /
b11 A
b11 B
b11111111111111111111111111110100 4
b11111111111111111111111111100101 5
b1100011 *
b10101 )
b1 -
b101 %
b101 G
b1111111 ,
b11 (
b11 @
b11 K
b11111110010100011001101011100011 $
b10100 9
1!
#260000
0!
#265000
b1 /
b1 A
b1 B
0#
b0 (
b0 @
b0 K
b101 '
b101 C
b101 J
b1 ;
b1 I
b1 1
b1 ?
12
1<
b11 :
b11 H
b10 0
b10 >
03
b100000000010 4
b1 5
b10011 *
b11 )
b0 -
b0 &
b0 F
b1 %
b1 G
b0 ,
b100000000000110010011 $
b1000 9
1!
#270000
0!
#275000
b10 /
b10 A
b10 B
b10 ;
b10 I
b10 0
b10 >
1<
02
b1 (
b1 @
b1 K
b1 '
b1 C
b1 J
b11 5
b110011 *
b10 &
b10 F
b11 %
b11 G
b1100010000000110110011 $
b1100 9
1!
#280000
0!
#285000
b11 /
b11 A
b11 B
b10 (
b10 @
b10 K
12
b1 1
b1 ?
b11 ;
b11 I
b10 0
b10 >
1<
b1 5
b10011 *
b11 &
b11 F
b1 %
b1 G
b101 '
b101 C
b101 J
b100011000000110010011 $
b10000 9
1!
#290000
0!
#295000
1#
b0 '
b0 C
b0 J
13
b0 1
b0 ?
b0 ;
b0 I
b10101 :
b10101 H
b110 0
b110 >
0<
02
b11 /
b11 A
b11 B
b11111111111111111111111111110100 4
b11111111111111111111111111100101 5
b1100011 *
b10101 )
b1 -
b101 %
b101 G
b1111111 ,
b11 (
b11 @
b11 K
b11111110010100011001101011100011 $
b10100 9
1!
#300000
0!
#305000
b1 /
b1 A
b1 B
0#
b0 (
b0 @
b0 K
b101 '
b101 C
b101 J
b1 ;
b1 I
b1 1
b1 ?
12
1<
b11 :
b11 H
b10 0
b10 >
03
b100000000010 4
b1 5
b10011 *
b11 )
b0 -
b0 &
b0 F
b1 %
b1 G
b0 ,
b100000000000110010011 $
b1000 9
1!
#310000
0!
#315000
b10 /
b10 A
b10 B
b10 ;
b10 I
b10 0
b10 >
1<
02
b1 (
b1 @
b1 K
b1 '
b1 C
b1 J
b11 5
b110011 *
b10 &
b10 F
b11 %
b11 G
b1100010000000110110011 $
b1100 9
1!
#320000
0!
#325000
b11 /
b11 A
b11 B
b10 (
b10 @
b10 K
12
b1 1
b1 ?
b11 ;
b11 I
b10 0
b10 >
1<
b1 5
b10011 *
b11 &
b11 F
b1 %
b1 G
b101 '
b101 C
b101 J
b100011000000110010011 $
b10000 9
1!
#330000
0!
#335000
1#
b0 '
b0 C
b0 J
13
b0 1
b0 ?
b0 ;
b0 I
b10101 :
b10101 H
b110 0
b110 >
0<
02
b11 /
b11 A
b11 B
b11111111111111111111111111110100 4
b11111111111111111111111111100101 5
b1100011 *
b10101 )
b1 -
b101 %
b101 G
b1111111 ,
b11 (
b11 @
b11 K
b11111110010100011001101011100011 $
b10100 9
1!
#340000
0!
#345000
b1 /
b1 A
b1 B
0#
b0 (
b0 @
b0 K
b101 '
b101 C
b101 J
b1 ;
b1 I
b1 1
b1 ?
12
1<
b11 :
b11 H
b10 0
b10 >
03
b100000000010 4
b1 5
b10011 *
b11 )
b0 -
b0 &
b0 F
b1 %
b1 G
b0 ,
b100000000000110010011 $
b1000 9
1!
#350000
0!
#355000
b10 /
b10 A
b10 B
b10 ;
b10 I
b10 0
b10 >
1<
02
b1 (
b1 @
b1 K
b1 '
b1 C
b1 J
b11 5
b110011 *
b10 &
b10 F
b11 %
b11 G
b1100010000000110110011 $
b1100 9
1!
#360000
0!
#365000
b11 /
b11 A
b11 B
b10 (
b10 @
b10 K
12
b1 1
b1 ?
b11 ;
b11 I
b10 0
b10 >
1<
b1 5
b10011 *
b11 &
b11 F
b1 %
b1 G
b101 '
b101 C
b101 J
b100011000000110010011 $
b10000 9
1!
#370000
0!
#375000
1#
b0 '
b0 C
b0 J
13
b0 1
b0 ?
b0 ;
b0 I
b10101 :
b10101 H
b110 0
b110 >
0<
02
b11 /
b11 A
b11 B
b11111111111111111111111111110100 4
b11111111111111111111111111100101 5
b1100011 *
b10101 )
b1 -
b101 %
b101 G
b1111111 ,
b11 (
b11 @
b11 K
b11111110010100011001101011100011 $
b10100 9
1!
#380000
0!
#385000
b1 /
b1 A
b1 B
0#
b0 (
b0 @
b0 K
b101 '
b101 C
b101 J
b1 ;
b1 I
b1 1
b1 ?
12
1<
b11 :
b11 H
b10 0
b10 >
03
b100000000010 4
b1 5
b10011 *
b11 )
b0 -
b0 &
b0 F
b1 %
b1 G
b0 ,
b100000000000110010011 $
b1000 9
1!
#390000
0!
#395000
b10 /
b10 A
b10 B
b10 ;
b10 I
b10 0
b10 >
1<
02
b1 (
b1 @
b1 K
b1 '
b1 C
b1 J
b11 5
b110011 *
b10 &
b10 F
b11 %
b11 G
b1100010000000110110011 $
b1100 9
1!
#400000
0!
#405000
b11 /
b11 A
b11 B
b10 (
b10 @
b10 K
12
b1 1
b1 ?
b11 ;
b11 I
b10 0
b10 >
1<
b1 5
b10011 *
b11 &
b11 F
b1 %
b1 G
b101 '
b101 C
b101 J
b100011000000110010011 $
b10000 9
1!
#410000
0!
#415000
1#
b0 '
b0 C
b0 J
13
b0 1
b0 ?
b0 ;
b0 I
b10101 :
b10101 H
b110 0
b110 >
0<
02
b11 /
b11 A
b11 B
b11111111111111111111111111110100 4
b11111111111111111111111111100101 5
b1100011 *
b10101 )
b1 -
b101 %
b101 G
b1111111 ,
b11 (
b11 @
b11 K
b11111110010100011001101011100011 $
b10100 9
1!
#420000
0!
#425000
b1 /
b1 A
b1 B
0#
b0 (
b0 @
b0 K
b101 '
b101 C
b101 J
b1 ;
b1 I
b1 1
b1 ?
12
1<
b11 :
b11 H
b10 0
b10 >
03
b100000000010 4
b1 5
b10011 *
b11 )
b0 -
b0 &
b0 F
b1 %
b1 G
b0 ,
b100000000000110010011 $
b1000 9
1!
#430000
0!
#435000
b10 /
b10 A
b10 B
b10 ;
b10 I
b10 0
b10 >
1<
02
b1 (
b1 @
b1 K
b1 '
b1 C
b1 J
b11 5
b110011 *
b10 &
b10 F
b11 %
b11 G
b1100010000000110110011 $
b1100 9
1!
#440000
0!
#445000
b11 /
b11 A
b11 B
b10 (
b10 @
b10 K
12
b1 1
b1 ?
b11 ;
b11 I
b10 0
b10 >
1<
b1 5
b10011 *
b11 &
b11 F
b1 %
b1 G
b101 '
b101 C
b101 J
b100011000000110010011 $
b10000 9
1!
#450000
0!
#455000
1#
b0 '
b0 C
b0 J
13
b0 1
b0 ?
b0 ;
b0 I
b10101 :
b10101 H
b110 0
b110 >
0<
02
b11 /
b11 A
b11 B
b11111111111111111111111111110100 4
b11111111111111111111111111100101 5
b1100011 *
b10101 )
b1 -
b101 %
b101 G
b1111111 ,
b11 (
b11 @
b11 K
b11111110010100011001101011100011 $
b10100 9
1!
#460000
0!
#465000
b1 /
b1 A
b1 B
0#
b0 (
b0 @
b0 K
b101 '
b101 C
b101 J
b1 ;
b1 I
b1 1
b1 ?
12
1<
b11 :
b11 H
b10 0
b10 >
03
b100000000010 4
b1 5
b10011 *
b11 )
b0 -
b0 &
b0 F
b1 %
b1 G
b0 ,
b100000000000110010011 $
b1000 9
1!
#470000
0!
#475000
b10 /
b10 A
b10 B
b10 ;
b10 I
b10 0
b10 >
1<
02
b1 (
b1 @
b1 K
b1 '
b1 C
b1 J
b11 5
b110011 *
b10 &
b10 F
b11 %
b11 G
b1100010000000110110011 $
b1100 9
1!
#480000
0!
#485000
b11 /
b11 A
b11 B
b10 (
b10 @
b10 K
12
b1 1
b1 ?
b11 ;
b11 I
b10 0
b10 >
1<
b1 5
b10011 *
b11 &
b11 F
b1 %
b1 G
b101 '
b101 C
b101 J
b100011000000110010011 $
b10000 9
1!
#490000
0!
#495000
1#
b0 '
b0 C
b0 J
13
b0 1
b0 ?
b0 ;
b0 I
b10101 :
b10101 H
b110 0
b110 >
0<
02
b11 /
b11 A
b11 B
b11111111111111111111111111110100 4
b11111111111111111111111111100101 5
b1100011 *
b10101 )
b1 -
b101 %
b101 G
b1111111 ,
b11 (
b11 @
b11 K
b11111110010100011001101011100011 $
b10100 9
1!
#500000
0!
#505000
b1 /
b1 A
b1 B
0#
b0 (
b0 @
b0 K
b101 '
b101 C
b101 J
b1 ;
b1 I
b1 1
b1 ?
12
1<
b11 :
b11 H
b10 0
b10 >
03
b100000000010 4
b1 5
b10011 *
b11 )
b0 -
b0 &
b0 F
b1 %
b1 G
b0 ,
b100000000000110010011 $
b1000 9
1!
