pipeline_cpu.vcd
$date
	Thu Jul 24 20:41:51 2025
$end
$version
	Icarus Verilog
$end
$timescale
	1ps
$end
$scope module pipeline_cpu_tb $end
$var wire 8 ! leds [7:0] $end
$var reg 1 " clk $end
$var reg 1 # reset $end
$var reg 8 $ switches [7:0] $end
$scope module uut $end
$var wire 1 " clk $end
$var wire 8 % leds [7:0] $end
$var wire 5 & reg_write_addr [4:0] $end
$var wire 1 ' reg_write_en $end
$var wire 1 # reset $end
$var wire 8 ( switches [7:0] $end
$var wire 32 ) reg_read_data2 [31:0] $end
$var wire 32 * reg_read_data1 [31:0] $end
$var wire 32 + mem_readdata [31:0] $end
$var wire 8 , led_output [7:0] $end
$var wire 32 - instr [31:0] $end
$var wire 1 . alu_zero $end
$var wire 32 / alu_result [31:0] $end
$var wire 32 0 alu_in2 [31:0] $end
$var reg 32 1 EX_MEM_alu_result [31:0] $end
$var reg 1 2 EX_MEM_memread $end
$var reg 1 3 EX_MEM_memtoreg $end
$var reg 1 4 EX_MEM_memwrite $end
$var reg 5 5 EX_MEM_rd [4:0] $end
$var reg 32 6 EX_MEM_regdata2 [31:0] $end
$var reg 1 7 EX_MEM_regwrite $end
$var reg 4 8 ID_EX_alu_control [3:0] $end
$var reg 1 9 ID_EX_alusrc $end
$var reg 32 : ID_EX_imm [31:0] $end
$var reg 1 ; ID_EX_memread $end
$var reg 1 < ID_EX_memtoreg $end
$var reg 1 = ID_EX_memwrite $end
$var reg 32 > ID_EX_pcplus4 [31:0] $end
$var reg 5 ? ID_EX_rd [4:0] $end
$var reg 32 @ ID_EX_regdata1 [31:0] $end
$var reg 32 A ID_EX_regdata2 [31:0] $end
$var reg 1 B ID_EX_regwrite $end
$var reg 5 C ID_EX_rs1 [4:0] $end
$var reg 5 D ID_EX_rs2 [4:0] $end
$var reg 32 E IF_ID_instr [31:0] $end
$var reg 32 F IF_ID_pcplus4 [31:0] $end
$var reg 32 G MEM_WB_alu_result [31:0] $end
$var reg 32 H MEM_WB_memdata [31:0] $end
$var reg 1 I MEM_WB_memtoreg $end
$var reg 5 J MEM_WB_rd [4:0] $end
$var reg 1 K MEM_WB_regwrite $end
$var reg 4 L alucontrol [3:0] $end
$var reg 1 M alusrc $end
$var reg 32 N imm_ext [31:0] $end
$var reg 1 O memread $end
$var reg 1 P memtoreg $end
$var reg 1 Q memwrite $end
$var reg 32 R pc [31:0] $end
$var reg 32 S reg_write_data [31:0] $end
$var reg 1 T regwrite $end
$scope module alu0 $end
$var wire 32 U a [31:0] $end
$var wire 4 V alu_control [3:0] $end
$var wire 32 W b [31:0] $end
$var wire 1 . zero $end
$var reg 32 X alu_result [31:0] $end
$upscope $end
$scope module dmem $end
$var wire 32 Y addr [31:0] $end
$var wire 1 " clk $end
$var wire 1 2 memread $end
$var wire 1 4 memwrite $end
$var wire 8 Z switch_input [7:0] $end
$var wire 32 [ writedata [31:0] $end
$var reg 8 \ led_output [7:0] $end
$var reg 32 ] readdata [31:0] $end
$var integer 32 ^ i [31:0] $end
$upscope $end
$scope module imem $end
$var wire 32 _ addr [31:0] $end
$var wire 32 ` instr [31:0] $end
$var integer 32 a i [31:0] $end
$upscope $end
$scope module regs $end
$var wire 1 " clk $end
$var wire 5 b ra1 [4:0] $end
$var wire 5 c ra2 [4:0] $end
$var wire 5 d wa3 [4:0] $end
$var wire 32 e wd3 [31:0] $end
$var wire 1 ' we3 $end
$var wire 32 f rd2 [31:0] $end
$var wire 32 g rd1 [31:0] $end
$var integer 32 h i [31:0] $end
$upscope $end
$upscope $end
$upscope $end
$enddefinitions $end
$comment Show the parameter values. $end
$dumpall
$end
#0
$dumpvars
b100000 h
b0 g
b0 f
b0 e
b0 d
b0 c
b0 b
b100000 a
b10100000000000010010011 `
b0 _
b10000000 ^
b0 ]
b0 \
b0 [
b10101010 Z
b0 Y
b0 X
b0 W
b0 V
b0 U
1T
b0 S
b0 R
0Q
0P
0O
b101 N
1M
b10 L
0K
b0 J
0I
b0 H
b0 G
b0 F
b0 E
b0 D
b0 C
0B
b0 A
b0 @
b0 ?
b0 >
0=
0<
0;
b0 :
09
b0 8
07
b0 6
b0 5
04
03
02
b0 1
b0 0
b0 /
1.
b10100000000000010010011 -
b0 ,
b0 +
b0 *
b0 )
b10101010 (
0'
b0 &
b0 %
b10101010 $
1#
0"
b0 !
$end
#5000
1"
#10000
0"
#15000
1"
#20000
0"
0#
#25000
b1 N
b10 L
1M
1T
0.
b101 /
b101 X
b101 0
b101 W
b101 c
b100000000000100010011 -
b100000000000100010011 `
19
1B
b10 8
b10 V
b101 :
b100 F
b10100000000000010010011 E
b100 R
b100 _
1"
#30000
0"
#35000
1.
b10 L
0M
1T
b0 N
b0 /
b0 X
b1000001000000110110011 -
b1000001000000110110011 `
b0 0
b0 W
b1 c
b1000 R
b1000 _
17
b101 1
b101 Y
b1 ?
b101 D
b1 :
b100 >
b1000 F
b100000000000100010011 E
1"
#40000
0"
#45000
1M
b10 L
1T
b101 S
b101 e
b1 b
b10 c
b10011 -
b10011 `
1'
1K
b101 G
b1 5
b0 1
b0 Y
09
b10 ?
b1 D
b0 :
b1000 >
b1100 F
b1000001000000110110011 E
b1100 R
b1100 _
1"
#50000
0"
#55000
b0 S
b0 e
b0 b
b0 c
b10000 R
b10000 _
b1 &
b1 d
b1 J
b0 G
b10 5
19
b11 ?
b10 D
b1 C
b1100 >
b10000 F
b10011 E
1"
#60000
0"
#65000
b10 &
b10 d
b10 J
b11 5
b0 ?
b0 D
b0 C
b10000 >
b10100 F
b10100 R
b10100 _
1"
#70000
0"
#75000
b11000 R
b11000 _
b11 &
b11 d
b11 J
b0 5
b10100 >
b11000 F
1"
#80000
0"
#85000
b0 &
b0 d
b0 J
b11000 >
b11100 F
b11100 R
b11100 _
1"
#90000
0"
#95000
b100000 R
b100000 _
b11100 >
b100000 F
1"
#100000
0"
#105000
b100000 >
b100100 F
b100100 R
b100100 _
1"
#110000
0"
#115000
b101000 R
b101000 _
b100100 >
b101000 F
1"
#120000
0"
#125000
b101000 >
b101100 F
b101100 R
b101100 _
1"
#130000
0"
#135000
b110000 R
b110000 _
b101100 >
b110000 F
1"
#140000
0"
#145000
b110000 >
b110100 F
b110100 R
b110100 _
1"
#150000
0"
#155000
b111000 R
b111000 _
b110100 >
b111000 F
1"
#160000
0"
#165000
b111000 >
b111100 F
b111100 R
b111100 _
1"
#170000
0"
#175000
b1000000 R
b1000000 _
b111100 >
b1000000 F
1"
#180000
0"
#185000
b1000000 >
b1000100 F
b1000100 R
b1000100 _
1"
#190000
0"
#195000
b1001000 R
b1001000 _
b1000100 >
b1001000 F
1"
#200000
0"
#205000
b1001000 >
b1001100 F
b1001100 R
b1001100 _
1"
#210000
0"
#215000
b1010000 R
b1010000 _
b1001100 >
b1010000 F
1"
#220000
0"
#225000
b1010000 >
b1010100 F
b1010100 R
b1010100 _
1"
#230000
0"
#235000
b1011000 R
b1011000 _
b1010100 >
b1011000 F
1"
#240000
0"
#245000
b1011000 >
b1011100 F
b1011100 R
b1011100 _
1"
#250000
0"
#255000
b1100000 R
b1100000 _
b1011100 >
b1100000 F
1"
#260000
0"
#265000
b1100000 >
b1100100 F
b1100100 R
b1100100 _
1"
#270000
0"
#275000
b1101000 R
b1101000 _
b1100100 >
b1101000 F
1"
#280000
0"
#285000
b1101000 >
b1101100 F
b1101100 R
b1101100 _
1"
#290000
0"
#295000
b1110000 R
b1110000 _
b1101100 >
b1110000 F
1"
#300000
0"
#305000
b1110000 >
b1110100 F
b1110100 R
b1110100 _
1"
#310000
0"
#315000
b1111000 R
b1111000 _
b1110100 >
b1111000 F
1"
#320000
0"
#325000
b1111000 >
b1111100 F
b1111100 R
b1111100 _
1"
#330000
0"
#335000
b10 L
1M
1T
b101 N
b10100000000000010010011 -
b10100000000000010010011 `
b10000000 R
b10000000 _
b1111100 >
b10000000 F
1"
#340000
0"
#345000
0.
b101 /
b101 X
b1 N
b10 L
1M
1T
b101 0
b101 W
b101 c
b100000000000100010011 -
b100000000000100010011 `
b101 :
b10000000 >
b10000100 F
b10100000000000010010011 E
b10000100 R
b10000100 _
1"
#350000
0"
#355000
1.
b10 L
0M
1T
b0 N
b0 /
b0 X
b1000001000000110110011 -
b1000001000000110110011 `
b0 0
b0 W
b1 c
b10001000 R
b10001000 _
b101 1
b101 Y
b1 ?
b101 D
b1 :
b10000100 >
b10001000 F
b100000000000100010011 E
1"
#360000
0"
#365000
1M
b10 L
1T
b101 S
b101 e
b1 b
b10 c
b10011 -
b10011 `
b101 G
b1 5
b0 1
b0 Y
09
b10 ?
b1 D
b0 :
b10001000 >
b10001100 F
b1000001000000110110011 E
b10001100 R
b10001100 _
1"
#370000
0"
#375000
b0 S
b0 e
b0 b
b0 c
b10010000 R
b10010000 _
b1 &
b1 d
b1 J
b0 G
b10 5
19
b11 ?
b10 D
b1 C
b10001100 >
b10010000 F
b10011 E
1"
#380000
0"
#385000
b10 &
b10 d
b10 J
b11 5
b0 ?
b0 D
b0 C
b10010000 >
b10010100 F
b10010100 R
b10010100 _
1"
#390000
0"
#395000
b10011000 R
b10011000 _
b11 &
b11 d
b11 J
b0 5
b10010100 >
b10011000 F
1"
#400000
0"
#405000
b0 &
b0 d
b0 J
b10011000 >
b10011100 F
b10011100 R
b10011100 _
1"
#410000
0"
#415000
b10100000 R
b10100000 _
b10011100 >
b10100000 F
1"
#420000
0"
#425000
b10100000 >
b10100100 F
b10100100 R
b10100100 _
1"
#430000
0"
#435000
b10101000 R
b10101000 _
b10100100 >
b10101000 F
1"
#440000
0"
#445000
b10101000 >
b10101100 F
b10101100 R
b10101100 _
1"
#450000
0"
#455000
b10110000 R
b10110000 _
b10101100 >
b10110000 F
1"
#460000
0"
#465000
b10110000 >
b10110100 F
b10110100 R
b10110100 _
1"
#470000
0"
#475000
b10111000 R
b10111000 _
b10110100 >
b10111000 F
1"
#480000
0"
#485000
b10111000 >
b10111100 F
b10111100 R
b10111100 _
1"
#490000
0"
#495000
b11000000 R
b11000000 _
b10111100 >
b11000000 F
1"
#500000
0"
#505000
b11000000 >
b11000100 F
b11000100 R
b11000100 _
1"
#510000
0"
#515000
b11001000 R
b11001000 _
b11000100 >
b11001000 F
1"
#520000
0"
#525000
b11001000 >
b11001100 F
b11001100 R
b11001100 _
1"
#530000
0"
#535000
b11010000 R
b11010000 _
b11001100 >
b11010000 F
1"
#540000
0"
#545000
b11010000 >
b11010100 F
b11010100 R
b11010100 _
1"
#550000
0"
#555000
b11011000 R
b11011000 _
b11010100 >
b11011000 F
1"
#560000
0"
#565000
b11011000 >
b11011100 F
b11011100 R
b11011100 _
1"
#570000
0"
#575000
b11100000 R
b11100000 _
b11011100 >
b11100000 F
1"
#580000
0"
#585000
b11100000 >
b11100100 F
b11100100 R
b11100100 _
1"
#590000
0"
#595000
b11101000 R
b11101000 _
b11100100 >
b11101000 F
1"
#600000
0"
#605000
b11101000 >
b11101100 F
b11101100 R
b11101100 _
1"
#610000
0"
#615000
b11110000 R
b11110000 _
b11101100 >
b11110000 F
1"
#620000
0"
#625000
b11110000 >
b11110100 F
b11110100 R
b11110100 _
1"
#630000
0"
#635000
b11111000 R
b11111000 _
b11110100 >
b11111000 F
1"
#640000
0"
#645000
b11111000 >
b11111100 F
b11111100 R
b11111100 _
1"
#650000
0"
#655000
b10 L
1M
1T
b101 N
b10100000000000010010011 -
b10100000000000010010011 `
b100000000 R
b100000000 _
b11111100 >
b100000000 F
1"
#660000
0"
#665000
0.
b101 /
b101 X
b1 N
b10 L
1M
1T
b101 0
b101 W
b101 c
b100000000000100010011 -
b100000000000100010011 `
b101 :
b100000000 >
b100000100 F
b10100000000000010010011 E
b100000100 R
b100000100 _
1"
#670000
0"
#675000
1.
b10 L
0M
1T
b0 N
b0 /
b0 X
b1000001000000110110011 -
b1000001000000110110011 `
b0 0
b0 W
b1 c
b100001000 R
b100001000 _
b101 1
b101 Y
b1 ?
b101 D
b1 :
b100000100 >
b100001000 F
b100000000000100010011 E
1"
#680000
0"
#685000
1M
b10 L
1T
b101 S
b101 e
b1 b
b10 c
b10011 -
b10011 `
b101 G
b1 5
b0 1
b0 Y
09
b10 ?
b1 D
b0 :
b100001000 >
b100001100 F
b1000001000000110110011 E
b100001100 R
b100001100 _
1"
#690000
0"
#695000
b0 S
b0 e
b0 b
b0 c
b100010000 R
b100010000 _
b1 &
b1 d
b1 J
b0 G
b10 5
19
b11 ?
b10 D
b1 C
b100001100 >
b100010000 F
b10011 E
1"
#700000
0"
#705000
b10 &
b10 d
b10 J
b11 5
b0 ?
b0 D
b0 C
b100010000 >
b100010100 F
b100010100 R
b100010100 _
1"
#710000
0"
#715000
b100011000 R
b100011000 _
b11 &
b11 d
b11 J
b0 5
b100010100 >
b100011000 F
1"
#720000
0"
#725000
b0 &
b0 d
b0 J
b100011000 >
b100011100 F
b100011100 R
b100011100 _
1"
#730000
0"
#735000
b100100000 R
b100100000 _
b100011100 >
b100100000 F
1"
#740000
0"
#745000
b100100000 >
b100100100 F
b100100100 R
b100100100 _
1"
#750000
0"
#755000
b100101000 R
b100101000 _
b100100100 >
b100101000 F
1"
#760000
0"
#765000
b100101000 >
b100101100 F
b100101100 R
b100101100 _
1"
#770000
0"
#775000
b100110000 R
b100110000 _
b100101100 >
b100110000 F
1"
#780000
0"
#785000
b100110000 >
b100110100 F
b100110100 R
b100110100 _
1"
#790000
0"
#795000
b100111000 R
b100111000 _
b100110100 >
b100111000 F
1"
#800000
0"
#805000
b100111000 >
b100111100 F
b100111100 R
b100111100 _
1"
#810000
0"
#815000
b101000000 R
b101000000 _
b100111100 >
b101000000 F
1"
#820000
0"
#825000
b101000000 >
b101000100 F
b101000100 R
b101000100 _
1"
#830000
0"
#835000
b101001000 R
b101001000 _
b101000100 >
b101001000 F
1"
#840000
0"
#845000
b101001000 >
b101001100 F
b101001100 R
b101001100 _
1"
#850000
0"
#855000
b101010000 R
b101010000 _
b101001100 >
b101010000 F
1"
#860000
0"
#865000
b101010000 >
b101010100 F
b101010100 R
b101010100 _
1"
#870000
0"
#875000
b101011000 R
b101011000 _
b101010100 >
b101011000 F
1"
#880000
0"
#885000
b101011000 >
b101011100 F
b101011100 R
b101011100 _
1"
#890000
0"
#895000
b101100000 R
b101100000 _
b101011100 >
b101100000 F
1"
#900000
0"
#905000
b101100000 >
b101100100 F
b101100100 R
b101100100 _
1"
#910000
0"
#915000
b101101000 R
b101101000 _
b101100100 >
b101101000 F
1"
#920000
0"
#925000
b101101000 >
b101101100 F
b101101100 R
b101101100 _
1"
#930000
0"
#935000
b101110000 R
b101110000 _
b101101100 >
b101110000 F
1"
#940000
0"
#945000
b101110000 >
b101110100 F
b101110100 R
b101110100 _
1"
#950000
0"
#955000
b101111000 R
b101111000 _
b101110100 >
b101111000 F
1"
#960000
0"
#965000
b101111000 >
b101111100 F
b101111100 R
b101111100 _
1"
#970000
0"
#975000
b10 L
1M
1T
b101 N
b10100000000000010010011 -
b10100000000000010010011 `
b110000000 R
b110000000 _
b101111100 >
b110000000 F
1"
#980000
0"
#985000
0.
b101 /
b101 X
b1 N
b10 L
1M
1T
b101 0
b101 W
b101 c
b100000000000100010011 -
b100000000000100010011 `
b101 :
b110000000 >
b110000100 F
b10100000000000010010011 E
b110000100 R
b110000100 _
1"
#990000
0"
#995000
1.
b10 L
0M
1T
b0 N
b0 /
b0 X
b1000001000000110110011 -
b1000001000000110110011 `
b0 0
b0 W
b1 c
b110001000 R
b110001000 _
b101 1
b101 Y
b1 ?
b101 D
b1 :
b110000100 >
b110001000 F
b100000000000100010011 E
1"
#1000000
0"
#1005000
1M
b10 L
1T
b101 S
b101 e
b1 b
b10 c
b10011 -
b10011 `
b101 G
b1 5
b0 1
b0 Y
09
b10 ?
b1 D
b0 :
b110001000 >
b110001100 F
b1000001000000110110011 E
b110001100 R
b110001100 _
1"
#1010000
0"
#1015000
b0 S
b0 e
b0 b
b0 c
b110010000 R
b110010000 _
b1 &
b1 d
b1 J
b0 G
b10 5
19
b11 ?
b10 D
b1 C
b110001100 >
b110010000 F
b10011 E
1"
